{
  "type": "service_account",
  "project_id": "powerbi-data-warehouse",
  "private_key_id": "145535146fd072020a6341a3b239509c91196d6b",
  "private_key": "-----BEGIN PRIVATE KEY-----\nMIIEvgIBADANBgkqhkiG9w0BAQEFAASCBKgwggSkAgEAAoIBAQC9KsfN6AEN7w/a\nGd45qCS1tLWFovVg0k1zP28M3X+5vTxSfi/XWp396YcqLbF5meD3HXuK+hcY6DOO\n7V+aGj1YCalWoBkOYfvdh6m2/nqPK8YX7bBElcTWbW5TMmgyUxQlupU+04a7ya51\n7NwYfZGBXLDF1GdPoG0OvVoVBePNjHO1P93mOg5PKVf8KF7kmBQsjjO8FggRHklN\niXZkUVKPkCOmmtv6uFWaMZhlkmFbKFySMzLE5u2MqROseDkNvImG5yTecae/g/El\nthFPhPTN/cUTI+w7NhYDDF0+6LJWzbB9JB10mvc5R2r31sr/u++nL8YXixuRZXt+\nFzqUdJWtAgMBAAECggEAH5g/mvJ/Cpa9LQ5ZAYRF7VtrXhCjrzIw4Wjc4Wc1aA5l\nPtn4n51w+fHBM5hCJi8/VcbE1aeDqBNQWTToXNK5IDUs5V0EElTnPk7kV74VNkh3\nY5O9dxcUs0O/w4GNyan6mXqaZs3pmP/MdcHD2QtP/C1BESmyv6fpzyZtH0nGjJP5\nSW1FJ19viv55BJTUBvut16bIARkN0x/MxZpIZZReabcM/d28qMMZ6yMZdpN6OWf5\nnseGtULe07rMIS7Mdo2MjvTQTxKq7pLDmuoo6qNlS/Sb+Fbn7bgwbXzkCEFheFq3\nvFFecXxYl/qnGMmDCRRQNTQtgDC2pvDG+Df9Z7U/+QKBgQDj2QeaejvJnWeTSoV6\nPXNCXZ4azxn73toGEIDBr4RwZUgzGZm09nCwuqyCOBCmwLHUaDgdO6sxtVWpA2ca\nPuzirbckm/9XoDVMfdYMA5D76eGpD5jv5pXwpLuDiBQB8brSfv5kU52vatfKf1tt\nAyW5Sx+blk64RtEbW3A+68K3CwKBgQDUikG+wLBpxuYcvyhr+kUfMKLtMaAo6X5Q\nHZOUwxh431whRNw8DcfiqE0tJuO0OKbTmDPthmPRY/DFc4jTd+cbWnEVE73+tGLw\nfFU+NAssl7px3uXFExdHVa2p1iMXKnXLWiDLQfKFNucEuQRsGVJnt/eXt02I3Bw2\nY4HCReP5JwKBgQDXpC5IC+vN80V154/Qk5wkcYoTgXLsKIxcNP5HUaCc556fjlkl\nJiCdgu+GBx3rVHB5wXFqaXCrCR5babcI5gk4uISfB21xN1V6YZZVpIJxiXdjlDmA\nw9GhAafe4slc1bWlRz/pICIbRZmaM1MKJ3Jqnij6DhXO3mdF5xKi2mtc5QKBgDmE\n0RYWf6egtFXDReUy7dHrD6yxaW6pAg4ccvwncFAF4qD+SbvW3ulwMrKte6IiUsOg\nxSza2dio+1f0VGsmX9z/NOtHVHvBxaTfgRI8c2m2Bjca44PaDsq3XTBBS23Rh99o\nnMdlKYTzvsGAcLnwgGShXNgqO0l2iAwQEeXJlFCxAoGBAM2dA/hSTGVxhOhVJOGn\nB8DuyI1kAyGk6ZxJ5SnNK0To/6CrvXxBdiyMfYO72U4KaWcqtFdLGJfenAsE9Jl5\nGY6uHWTr7V7iITxnmFtUcj0HJehQOzUlrRXDCRuPb67Yy+GgHb7Tlnkk2La3Bius\nbx9s1noXm4Xo8CLcW1sNXiXc\n-----END PRIVATE KEY-----\n",
  "client_email": "powerbi-warehouse@powerbi-data-warehouse.iam.gserviceaccount.com",
  "client_id": "111613185860544159933",
  "auth_uri": "https://accounts.google.com/o/oauth2/auth",
  "token_uri": "https://oauth2.googleapis.com/token",
  "auth_provider_x509_cert_url": "https://www.googleapis.com/oauth2/v1/certs",
  "client_x509_cert_url": "https://www.googleapis.com/robot/v1/metadata/x509/powerbi-warehouse%40powerbi-data-warehouse.iam.gserviceaccount.com",
  "universe_domain": "googleapis.com"
}
